Trump's Approval Margins · Portfolio website for Oriana Wei
…
# Use `lubridate` to fix dates, as they are given as characters.
approval_polllist$new_modeldate <- as.Date(approval_polllist$modeldate,
                         format = "%m/%d/%Y")
approval_polllist$new_startdate <- as.Date(approval_polllist$startdate,
                         format = "%m/%d/%Y")
approval_polllist$new_enddate <- as.Date(approval_polllist$enddate,
                         format = "%m/%d/%Y")
approval_polllist$new_createddate <- as.Date(approval_polllist$createddate,
                         format = "%m/%d/%Y")
approval_polllist$new_timestamp <- as.POSIXct(approval_polllist$timestamp,
                          format = "%H:%M:%S %d %b %Y")
approval_polllist

## # A tibble: 15,475 x 27
##    president subgroup modeldate startdate enddate pollster grade samplesize
##    <chr>     <chr>    <chr>     <chr>     <chr>   <chr>    <chr>      <dbl>
##  1 Donald T… All pol… 9/14/2020 1/20/2017 1/22/2… Morning… B/C         1992
##  2 Donald T… All pol… 9/14/2020 1/20/2017 1/22/2… Gallup   B           1500
##  3 Donald T… All pol… 9/14/2020 1/20/2017 1/24/2… Ipsos    B-          1632
##  4 Donald T… All pol… 9/14/2020 1/21/2017 1/23/2… Gallup   B           1500
##  5 Donald T… All pol… 9/14/2020 1/22/2017 1/24/2… Gallup   B           1500
##  6 Donald T… All pol… 9/14/2020 1/20/2017 1/25/2… Quinnip… B+          1190
##  7 Donald T… All pol… 9/14/2020 1/22/2017 1/24/2… Rasmuss… C+          1500
##  8 Donald T… All pol… 9/14/2020 1/21/2017 1/25/2… Ipsos    B-          1651
##  9 Donald T… All pol… 9/14/2020 1/22/2017 1/26/2… Ipsos    B-          1678
## 10 Donald T… All pol… 9/14/2020 1/23/2017 1/24/2… Public … B           1043
## # … with 15,465 more rows, and 19 more variables: population <chr>,
## #   weight <dbl>, influence <dbl>, approve <dbl>, disapprove <dbl>,
## #   adjusted_approve <dbl>, adjusted_disapprove <dbl>, multiversions <chr>,
## #   tracking <lgl>, url <chr>, poll_id <dbl>, question_id <dbl>,
## #   createddate <chr>, timestamp <chr>, new_modeldate <date>,
## #   new_startdate <date>, new_enddate <date>, new_createddate <date>,
## #   new_timestamp <dttm>

Create a plot

What I would like you to do is to calculate the average net approval rate (approve- disapprove) for each week since he got into office. I want you plot the net approval, along with its 95% confidence interval. There are various dates given for each poll, please use enddate, i.e., the date the poll ended.

#add week number of each enddate
week_list <- approval_polllist %>%
mutate(week = lubridate::week(ymd(approval_polllist$new_enddate)))
week_list

## # A tibble: 15,475 x 28
##    president subgroup modeldate startdate enddate pollster grade samplesize
##    <chr>     <chr>    <chr>     <chr>     <chr>   <chr>    <chr>      <dbl>
##  1 Donald T… All pol… 9/14/2020 1/20/2017 1/22/2… Morning… B/C         1992
##  2 Donald T… All pol… 9/14/2020 1/20/2017 1/22/2… Gallup   B           1500
##  3 Donald T… All pol… 9/14/2020 1/20/2017 1/24/2… Ipsos    B-          1632
##  4 Donald T… All pol… 9/14/2020 1/21/2017 1/23/2… Gallup   B           1500
##  5 Donald T… All pol… 9/14/2020 1/22/2017 1/24/2… Gallup   B           1500
##  6 Donald T… All pol… 9/14/2020 1/20/2017 1/25/2… Quinnip… B+          1190
##  7 Donald T… All pol… 9/14/2020 1/22/2017 1/24/2… Rasmuss… C+          1500
##  8 Donald T… All pol… 9/14/2020 1/21/2017 1/25/2… Ipsos    B-          1651
##  9 Donald T… All pol… 9/14/2020 1/22/2017 1/26/2… Ipsos    B-          1678
## 10 Donald T… All pol… 9/14/2020 1/23/2017 1/24/2… Public … B           1043
## # … with 15,465 more rows, and 20 more variables: population <chr>,
## #   weight <dbl>, influence <dbl>, approve <dbl>, disapprove <dbl>,
## #   adjusted_approve <dbl>, adjusted_disapprove <dbl>, multiversions <chr>,
## #   tracking <lgl>, url <chr>, poll_id <dbl>, question_id <dbl>,
## #   createddate <chr>, timestamp <chr>, new_modeldate <date>,
## #   new_startdate <date>, new_enddate <date>, new_createddate <date>,
## #   new_timestamp <dttm>, week <dbl>

#add a column for year+week
approval_year <- week_list %>% 
  mutate(year=year(new_enddate),
         year_week=year(new_enddate)* 100 + week)
approval_year

## # A tibble: 15,475 x 30
##    president subgroup modeldate startdate enddate pollster grade samplesize
##    <chr>     <chr>    <chr>     <chr>     <chr>   <chr>    <chr>      <dbl>
##  1 Donald T… All pol… 9/14/2020 1/20/2017 1/22/2… Morning… B/C         1992
##  2 Donald T… All pol… 9/14/2020 1/20/2017 1/22/2… Gallup   B           1500
##  3 Donald T… All pol… 9/14/2020 1/20/2017 1/24/2… Ipsos    B-          1632
##  4 Donald T… All pol… 9/14/2020 1/21/2017 1/23/2… Gallup   B           1500
##  5 Donald T… All pol… 9/14/2020 1/22/2017 1/24/2… Gallup   B           1500
##  6 Donald T… All pol… 9/14/2020 1/20/2017 1/25/2… Quinnip… B+          1190
##  7 Donald T… All pol… 9/14/2020 1/22/2017 1/24/2… Rasmuss… C+          1500
##  8 Donald T… All pol… 9/14/2020 1/21/2017 1/25/2… Ipsos    B-          1651
##  9 Donald T… All pol… 9/14/2020 1/22/2017 1/26/2… Ipsos    B-          1678
## 10 Donald T… All pol… 9/14/2020 1/23/2017 1/24/2… Public … B           1043
## # … with 15,465 more rows, and 22 more variables: population <chr>,
## #   weight <dbl>, influence <dbl>, approve <dbl>, disapprove <dbl>,
## #   adjusted_approve <dbl>, adjusted_disapprove <dbl>, multiversions <chr>,
## #   tracking <lgl>, url <chr>, poll_id <dbl>, question_id <dbl>,
## #   createddate <chr>, timestamp <chr>, new_modeldate <date>,
## #   new_startdate <date>, new_enddate <date>, new_createddate <date>,
## #   new_timestamp <dttm>, week <dbl>, year <dbl>, year_week <dbl>

#calculate the average net approval rate and CI of each week 
week_mean <- approval_year %>% 
  group_by(year_week) %>% 
  mutate(approval_mean=mean(approve-disapprove), 
         sd_approval=sd(approve-disapprove),
         count=n(),
         t_critical=qt(0.975, count-1),
         se_approval=sd(approve-disapprove)/sqrt(count),
            margin_of_error=t_critical*se_approval,
            approval_low=approval_mean-margin_of_error,
            approval_high=approval_mean+margin_of_error)
week_mean

## # A tibble: 15,475 x 38
## # Groups:   year_week [193]
##    president subgroup modeldate startdate enddate pollster grade samplesize
##    <chr>     <chr>    <chr>     <chr>     <chr>   <chr>    <chr>      <dbl>
##  1 Donald T… All pol… 9/14/2020 1/20/2017 1/22/2… Morning… B/C         1992
##  2 Donald T… All pol… 9/14/2020 1/20/2017 1/22/2… Gallup   B           1500
##  3 Donald T… All pol… 9/14/2020 1/20/2017 1/24/2… Ipsos    B-          1632
##  4 Donald T… All pol… 9/14/2020 1/21/2017 1/23/2… Gallup   B           1500
##  5 Donald T… All pol… 9/14/2020 1/22/2017 1/24/2… Gallup   B           1500
##  6 Donald T… All pol… 9/14/2020 1/20/2017 1/25/2… Quinnip… B+          1190
##  7 Donald T… All pol… 9/14/2020 1/22/2017 1/24/2… Rasmuss… C+          1500
##  8 Donald T… All pol… 9/14/2020 1/21/2017 1/25/2… Ipsos    B-          1651
##  9 Donald T… All pol… 9/14/2020 1/22/2017 1/26/2… Ipsos    B-          1678
## 10 Donald T… All pol… 9/14/2020 1/23/2017 1/24/2… Public … B           1043
## # … with 15,465 more rows, and 30 more variables: population <chr>,
## #   weight <dbl>, influence <dbl>, approve <dbl>, disapprove <dbl>,
## #   adjusted_approve <dbl>, adjusted_disapprove <dbl>, multiversions <chr>,
## #   tracking <lgl>, url <chr>, poll_id <dbl>, question_id <dbl>,
## #   createddate <chr>, timestamp <chr>, new_modeldate <date>,
## #   new_startdate <date>, new_enddate <date>, new_createddate <date>,
## #   new_timestamp <dttm>, week <dbl>, year <dbl>, year_week <dbl>,
## #   approval_mean <dbl>, sd_approval <dbl>, count <int>, t_critical <dbl>,
## #   se_approval <dbl>, margin_of_error <dbl>, approval_low <dbl>,
## #   approval_high <dbl>

#finalize the data set showing on the plot
final_plot <- week_mean %>%
  select(year,
         week,
         approval_mean,
         approval_high,
         approval_low )
final_plot

## # A tibble: 15,475 x 6
## # Groups:   year_week [193]
##    year_week  year  week approval_mean approval_high approval_low
##        <dbl> <dbl> <dbl>         <dbl>         <dbl>        <dbl>
##  1    201704  2017     4         0.943          3.01        -1.12
##  2    201704  2017     4         0.943          3.01        -1.12
##  3    201704  2017     4         0.943          3.01        -1.12
##  4    201704  2017     4         0.943          3.01        -1.12
##  5    201704  2017     4         0.943          3.01        -1.12
##  6    201704  2017     4         0.943          3.01        -1.12
##  7    201704  2017     4         0.943          3.01        -1.12
##  8    201704  2017     4         0.943          3.01        -1.12
##  9    201704  2017     4         0.943          3.01        -1.12
## 10    201704  2017     4         0.943          3.01        -1.12
## # … with 15,465 more rows
…
