…
filtered_data <- covid_data %>% 
  filter(!icu_yn %in% c("Missing", "Unknown") & !death_yn %in% c("Missing", "Unknown") & !sex %in% c("Missing", "Unknown", "Other") & !age_group %in% c("Unknown") & !medcond_yn %in% c("Missing", "Unknown"))

Using this new dataframe, we calculated the death rate separately of COVID patients based on whether they had some other medical conditions and whether they were admitted in the ICU:

#calculating death rate for icu admits
death_icu <- filtered_data %>%  
  group_by(sex, age_group, icu_yn) %>% 
  summarise(death_rate= count(death_yn=="Yes")/(count(death_yn=="Yes")+count(death_yn=="No"))) %>% 
  mutate(death_rate=death_rate*100) %>% 
  print(n = 5)

## # A tibble: 36 x 4
## # Groups:   sex, age_group [18]
##   sex    age_group     icu_yn death_rate
##   <chr>  <chr>         <chr>       <dbl>
## 1 Female 0 - 9 Years   No         0.187 
## 2 Female 0 - 9 Years   Yes        4.88  
## 3 Female 10 - 19 Years No         0.0367
## 4 Female 10 - 19 Years Yes        9.23  
## 5 Female 20 - 29 Years No         0.0535
## # … with 31 more rows

#calculating death rate for presence/absence co-morbidities
death_medcond <- filtered_data %>%  
  group_by(sex, age_group, medcond_yn) %>% 
  summarise(death_rate= count(death_yn=="Yes")/(count(death_yn=="Yes")+count(death_yn=="No"))) %>% 
  mutate(death_rate=death_rate*100) %>% 
  print(n = 5)

## # A tibble: 36 x 4
## # Groups:   sex, age_group [18]
##   sex    age_group     medcond_yn death_rate
##   <chr>  <chr>         <chr>           <dbl>
## 1 Female 0 - 9 Years   No             0.0582
## 2 Female 0 - 9 Years   Yes            0.598 
## 3 Female 10 - 19 Years No             0.0187
## 4 Female 10 - 19 Years Yes            0.276 
## 5 Female 20 - 29 Years No             0.0213
## # … with 31 more rows
…
