Bike Sharing Rentals Analysis · Portfolio Webste for Oriana Wei
…
jointed_df <- left_join(actual_monthly_rentals, expected_monthly_rentals, by = "month", copy = TRUE) %>% 
   mutate(excess_monthly_rentals = actual_per_month - expected_per_month,
         excess_rentals_pct_change = ((actual_per_month - expected_per_month) / expected_per_month),
         up = ifelse(actual_per_month>expected_per_month, excess_monthly_rentals, 0),
         down = ifelse(actual_per_month<expected_per_month, excess_monthly_rentals, 0),
         up_percent = ifelse(actual_per_month>expected_per_month, excess_rentals_pct_change, 0),
         down_percent = ifelse(actual_per_month<expected_per_month, excess_rentals_pct_change, 0)
         ) %>% 
  print(n =10)

## # A tibble: 67 x 10
## # Groups:   year [6]
##     year month actual_per_month expected_per_mo… excess_monthly_…
##    <dbl> <ord>            <dbl>            <dbl>            <dbl>
##  1  2015 Jan             18828.           20697.           -1869.
##  2  2015 Feb             19617.           21658.           -2041.
##  3  2015 Mar             22625.           22237.             388.
##  4  2015 Apr             27951.           26808.            1143.
##  5  2015 May             29031.           33043.           -4012.
##  6  2015 Jun             34659.           35819.           -1160.
##  7  2015 Jul             36607.           37794.           -1187.
##  8  2015 Aug             33643.           34243.            -600.
##  9  2015 Sep             30114.           32433.           -2319.
## 10  2015 Oct             28560.           29900.           -1339.
## # … with 57 more rows, and 5 more variables: excess_rentals_pct_change <dbl>,
## #   up <dbl>, down <dbl>, up_percent <dbl>, down_percent <dbl>
…
# Build-up the data frame to plot
jointed <- left_join(actual_per_week, expected_per_week, by = "week", copy = TRUE)%>% 
  mutate(excess_rentals = actual_bikes_hired - expected_bikes_hired,
         excess_rentals_pct_change = ((actual_bikes_hired - expected_bikes_hired) / expected_bikes_hired),
         up = ifelse(actual_bikes_hired>expected_bikes_hired, excess_rentals, 0),
         down = ifelse(actual_bikes_hired<expected_bikes_hired, excess_rentals, 0),
         up_percent = ifelse(actual_bikes_hired>expected_bikes_hired, excess_rentals_pct_change, 0),
         down_percent = ifelse(actual_bikes_hired<expected_bikes_hired, excess_rentals_pct_change, 0)
         ) %>% 
  print(n = 10)

## # A tibble: 293 x 10
## # Groups:   year [6]
##     year  week actual_bikes_hi… expected_bikes_… excess_rentals excess_rentals_…
##    <dbl> <dbl>            <dbl>            <dbl>          <dbl>            <dbl>
##  1  2015     1             9491           15695          -6204           -0.395 
##  2  2015     2            20566           22549          -1983           -0.0879
##  3  2015     3            22894           23306.          -412.          -0.0177
##  4  2015     4            22987           23332           -345           -0.0148
##  5  2015     5            21421           23356          -1935           -0.0828
##  6  2015     6            21146           21929           -783           -0.0357
##  7  2015     7            23429           23974           -545           -0.0227
##  8  2015     8            17081           24294          -7213           -0.297 
##  9  2015     9            21708           21211            497            0.0234
## 10  2015    10            24544           23824.           720.           0.0302
## # … with 283 more rows, and 4 more variables: up <dbl>, down <dbl>,
## #   up_percent <dbl>, down_percent <dbl>
…
